; Engine configuration file.
; It's best edited using the editor UI and not directly,
; since the parameters that go here are not all obvious.
;
; Format:
;   [section] ; section goes between []
;   param=value ; assign values to parameters

config_version=3

[application]

config/name="Flatball"
run/main_scene="res://Main_Menu.tscn"
config/icon="res://icon.png"

[autoload]

Network="*res://Network.gd"

[display]

window/size/width=1920
window/size/height=1080
window/stretch/mode="2d"

[editor_plugins]

enabled=PoolStringArray( "godot-git-control.funabab" )

[input]

p1_left=[ Object(InputEventKey,"resource_local_to_scene":false,"resource_name":"","device":0,"alt":false,"shift":false,"control":false,"meta":false,"command":false,"pressed":false,"scancode":65,"unicode":0,"echo":false,"script":null)
, Object(InputEventJoypadMotion,"resource_local_to_scene":false,"resource_name":"","device":0,"axis":0,"axis_value":-1.0,"script":null)
 ]
p1_right=[ Object(InputEventKey,"resource_local_to_scene":false,"resource_name":"","device":0,"alt":false,"shift":false,"control":false,"meta":false,"command":false,"pressed":false,"scancode":68,"unicode":0,"echo":false,"script":null)
, Object(InputEventJoypadMotion,"resource_local_to_scene":false,"resource_name":"","device":0,"axis":0,"axis_value":1.0,"script":null)
 ]
p1_up=[ Object(InputEventKey,"resource_local_to_scene":false,"resource_name":"","device":0,"alt":false,"shift":false,"control":false,"meta":false,"command":false,"pressed":false,"scancode":87,"unicode":0,"echo":false,"script":null)
, Object(InputEventJoypadMotion,"resource_local_to_scene":false,"resource_name":"","device":0,"axis":1,"axis_value":-1.0,"script":null)
 ]
p1_down=[ Object(InputEventKey,"resource_local_to_scene":false,"resource_name":"","device":0,"alt":false,"shift":false,"control":false,"meta":false,"command":false,"pressed":false,"scancode":83,"unicode":0,"echo":false,"script":null)
, Object(InputEventJoypadMotion,"resource_local_to_scene":false,"resource_name":"","device":0,"axis":1,"axis_value":1.0,"script":null)
 ]
p1_boost=[ Object(InputEventJoypadButton,"resource_local_to_scene":false,"resource_name":"","device":0,"button_index":0,"pressure":0.0,"pressed":false,"script":null)
 ]
p2_left=[ Object(InputEventJoypadMotion,"resource_local_to_scene":false,"resource_name":"","device":1,"axis":0,"axis_value":-1.0,"script":null)
, Object(InputEventKey,"resource_local_to_scene":false,"resource_name":"","device":0,"alt":false,"shift":false,"control":false,"meta":false,"command":false,"pressed":false,"scancode":16777231,"unicode":0,"echo":false,"script":null)
 ]
p2_right=[ Object(InputEventJoypadMotion,"resource_local_to_scene":false,"resource_name":"","device":1,"axis":0,"axis_value":1.0,"script":null)
, Object(InputEventKey,"resource_local_to_scene":false,"resource_name":"","device":0,"alt":false,"shift":false,"control":false,"meta":false,"command":false,"pressed":false,"scancode":16777233,"unicode":0,"echo":false,"script":null)
 ]
p2_up=[ Object(InputEventJoypadMotion,"resource_local_to_scene":false,"resource_name":"","device":1,"axis":1,"axis_value":-1.0,"script":null)
, Object(InputEventKey,"resource_local_to_scene":false,"resource_name":"","device":0,"alt":false,"shift":false,"control":false,"meta":false,"command":false,"pressed":false,"scancode":16777232,"unicode":0,"echo":false,"script":null)
 ]
p2_down=[ Object(InputEventJoypadMotion,"resource_local_to_scene":false,"resource_name":"","device":1,"axis":1,"axis_value":1.0,"script":null)
, Object(InputEventKey,"resource_local_to_scene":false,"resource_name":"","device":0,"alt":false,"shift":false,"control":false,"meta":false,"command":false,"pressed":false,"scancode":16777234,"unicode":0,"echo":false,"script":null)
 ]
p1_brake=[ Object(InputEventJoypadButton,"resource_local_to_scene":false,"resource_name":"","device":0,"button_index":2,"pressure":0.0,"pressed":false,"script":null)
 ]
p1_start=[ Object(InputEventKey,"resource_local_to_scene":false,"resource_name":"","device":0,"alt":false,"shift":false,"control":false,"meta":false,"command":false,"pressed":false,"scancode":16777217,"unicode":0,"echo":false,"script":null)
, Object(InputEventJoypadButton,"resource_local_to_scene":false,"resource_name":"","device":0,"button_index":11,"pressure":0.0,"pressed":false,"script":null)
 ]
p2_boost=[ Object(InputEventJoypadButton,"resource_local_to_scene":false,"resource_name":"","device":1,"button_index":0,"pressure":0.0,"pressed":false,"script":null)
 ]
p2_brake=[ Object(InputEventJoypadButton,"resource_local_to_scene":false,"resource_name":"","device":1,"button_index":2,"pressure":0.0,"pressed":false,"script":null)
 ]
p1_thrust=[ Object(InputEventJoypadButton,"resource_local_to_scene":false,"resource_name":"","device":0,"button_index":7,"pressure":0.0,"pressed":false,"script":null)
 ]

[physics]

2d/default_gravity=0
2d/default_gravity_vector=Vector2( 0, 0 )

[rendering]

environment/default_environment="res://default_env.tres"
